<?xml version="1.0" encoding="utf-8"?>
<!-- Generator: Adobe Illustrator 16.0.0, SVG Export Plug-In . SVG Version: 6.00 Build 0)  -->
<!DOCTYPE svg PUBLIC "-//W3C//DTD SVG 1.1//EN" "http://www.w3.org/Graphics/SVG/1.1/DTD/svg11.dtd">
<svg version="1.1" id="Layer_1" xmlns="http://www.w3.org/2000/svg" xmlns:xlink="http://www.w3.org/1999/xlink" x="0px" y="0px"
	 width="148.819px" height="148.819px" viewBox="0 0 148.819 148.819" enable-background="new 0 0 148.819 148.819"
	 xml:space="preserve">
<g>
	<g>
		<path fill-rule="evenodd" clip-rule="evenodd" fill="#246892" d="M74.954,2.493C34.75,2.406,2.467,34.358,2.459,74.121
			c-0.007,40.076,32,72.206,71.931,72.206c39.517-0.001,71.698-32.056,71.968-71.229C146.633,35.184,114.412,2.579,74.954,2.493z
			 M74.283,141.135c-36.957-0.073-66.733-29.959-66.632-66.874C7.753,37.362,37.528,7.658,74.402,7.671
			c36.942,0.013,66.757,29.864,66.713,66.792C141.072,111.41,111.203,141.208,74.283,141.135z"/>
		<path fill-rule="evenodd" clip-rule="evenodd" fill="#246892" d="M96.742,66.709c0.678-0.743,1.32-1.942,1.247-2.876
			c-0.31-3.947-2.644-6.792-5.703-9.608c-3.421,3.458-6.686,6.758-9.749,9.856c-0.904-0.729-1.829-1.474-3.105-2.503
			c3.35-3.325,6.484-6.437,9.601-9.53c-3.738-2.06-5.185-1.878-8.188,1.16c-1.576,1.596-3.097,3.247-4.735,4.969
			c-7.477-7.482-14.726-14.737-21.871-21.889c-6.037,6.04-11.977,11.98-18.134,18.14c7.175,7.167,14.435,14.418,21.927,21.901
			c-3.624,3.596-7.268,7.213-10.809,10.728c1.274,0.25,2.707,0.261,3.87,0.826c1.547,0.753,2.399,0.294,3.446-0.832
			c2.305-2.479,4.749-4.827,6.947-7.039c1.073,0.943,1.958,1.723,3.199,2.813c-2.854,2.736-5.654,5.421-8.457,8.108
			c2.897,3.152,5.833,6.227,5.435,11.242c3.743-3.743,7.484-7.486,11.331-11.332c7.25,7.257,14.472,14.486,21.619,21.64
			c5.955-5.955,11.899-11.899,17.871-17.872c-7.162-7.153-14.396-14.377-21.861-21.833C92.786,70.66,94.86,68.772,96.742,66.709z
			 M94.031,80.666c-2.931,2.906-6.078,6.029-9.394,9.316c0.965,0.741,1.648,1.266,2.261,1.737c2.917-2.936,6.038-6.078,9.001-9.062
			c1.96,1.936,3.614,3.569,5.369,5.305c-2.371,2.339-4.94,4.874-7.555,7.453c0.762,0.678,1.402,1.247,2.236,1.989
			c2.364-2.469,4.894-5.111,7.334-7.661c1.832,1.819,3.458,3.433,4.981,4.945c-4.513,4.513-9.087,9.089-13.568,13.57
			c-18.01-18.01-36.12-36.117-54.09-54.088c4.451-4.449,9.021-9.015,13.531-13.524c1.386,1.417,2.98,3.046,4.617,4.72
			c-2.425,2.371-5.042,4.928-7.696,7.522c0.938,0.814,1.592,1.38,2.26,1.96c2.452-2.493,4.987-5.07,7.496-7.621
			c1.78,1.867,3.361,3.526,5.006,5.251c-2.954,2.844-6.144,5.917-9.476,9.125c1.062,0.778,1.755,1.284,2.52,1.844
			c2.827-2.85,5.978-6.022,9.034-9.101c1.855,1.86,3.473,3.482,5.229,5.245c-2.53,2.414-5.147,4.911-7.791,7.432
			c0.827,0.771,1.453,1.354,2.187,2.037c2.412-2.502,4.949-5.133,7.476-7.755c1.885,1.896,3.495,3.517,5.193,5.226
			c-3.114,3.097-6.259,6.223-9.534,9.477c0.776,0.708,1.41,1.288,2.091,1.911c3.125-3.148,6.244-6.292,9.293-9.364
			c1.768,1.81,3.359,3.44,5.073,5.194c-2.399,2.36-5.002,4.921-7.677,7.553c0.845,0.742,1.491,1.31,2.281,2.003
			c2.431-2.54,4.934-5.154,7.38-7.709C90.882,77.428,92.475,79.065,94.031,80.666z"/>
		<path fill-rule="evenodd" clip-rule="evenodd" fill="#246892" d="M100.805,62.792c1.846-1.869,3.693-3.733,5.535-5.604
			c1.671-1.695,2.255-3.75,1.811-6.048c-0.998-5.153-4.14-8.473-9.025-10.179c-2.165-0.756-4.563-0.924-6.298,0.587
			c-2.358,2.054-4.299,4.586-6.119,6.585C92.721,47.26,101.682,56.724,100.805,62.792z"/>
		<path fill-rule="evenodd" clip-rule="evenodd" fill="#246892" d="M47.983,94.534c-0.583-0.248-1.35-0.458-1.901-0.28
			c-0.678,0.219-1.622,0.771-1.751,1.338c-0.804,3.511-1.412,7.067-2.148,10.948c3.635-0.668,6.912-1.259,10.185-1.875
			c2.008-0.378,2.696-1.47,2.009-3.442C53.272,98.043,51.063,95.839,47.983,94.534z"/>
	</g>
</g>
</svg>
