<?xml version="1.0" encoding="utf-8"?>
<!-- Generator: Adobe Illustrator 16.0.0, SVG Export Plug-In . SVG Version: 6.00 Build 0)  -->
<!DOCTYPE svg PUBLIC "-//W3C//DTD SVG 1.1//EN" "http://www.w3.org/Graphics/SVG/1.1/DTD/svg11.dtd">
<svg version="1.1" id="Layer_1" xmlns="http://www.w3.org/2000/svg" xmlns:xlink="http://www.w3.org/1999/xlink" x="0px" y="0px"
	 width="50px" height="50px" viewBox="0 0 50 50" enable-background="new 0 0 50 50" xml:space="preserve">
<g>
	<path fill-rule="evenodd" clip-rule="evenodd" fill="#F7A035" d="M31.83,25.927c-0.049-0.691-0.091-1.308-0.137-1.975
		c1.13,0,2.246,0,3.439,0c-0.031-2.522-0.287-4.965-0.692-7.451c-0.733,0.114-1.428,0.232-2.124,0.329
		c-0.896,0.124-1.796,0.238-2.697,0.336c-0.146,0.016-0.319-0.05-0.457-0.122c-2.683-1.381-5.365-1.412-8.063-0.039
		c-0.203,0.103-0.47,0.156-0.693,0.128c-1.455-0.187-2.905-0.402-4.356-0.606c-0.094-0.013-0.19-0.001-0.403-0.001
		c-0.233,2.455-0.464,4.892-0.704,7.411c1.248,0,2.376,0,3.526,0c-0.052,0.687-0.098,1.302-0.149,1.97c-1.068,0-2.15,0-3.293,0
		c-0.021,2.392,0.248,4.708,0.619,7.065c-0.62,0.191-1.208,0.374-1.952,0.604c-0.248-2.581-0.484-5.048-0.724-7.548
		c-3.232,0-6.492,0-9.826,0c0.164,3.775,1.271,7.235,3.255,10.516c1.526-0.961,3.163-1.609,4.904-2.07
		c-0.619,0.642-0.971,1.393-1.123,2.253c-0.02,0.109-0.231,0.21-0.373,0.271c-0.809,0.356-1.624,0.7-2.564,1.103
		c0.834,0.923,1.593,1.74,2.32,2.584c0.151,0.176,0.271,0.453,0.263,0.676c-0.03,0.803-0.121,1.604-0.19,2.423
		c-6.052-4.603-10.59-13.501-8.545-23.79C3.208,9.344,12.707,1.225,23.748,0.722C35.631,0.18,45.359,8.174,48.34,18.151
		c3.137,10.496-0.995,20.198-7.956,25.747c-0.073-0.897-0.157-1.76-0.199-2.623c-0.007-0.161,0.126-0.356,0.247-0.492
		c0.741-0.837,1.496-1.66,2.338-2.59c-0.893-0.391-1.658-0.753-2.447-1.062c-0.345-0.137-0.46-0.339-0.587-0.683
		c-0.261-0.69-0.661-1.33-1.027-2.034c1.676,0.669,3.381,1.351,5.097,2.034c1.701-2.316,3.336-7.595,3.192-10.407
		c-3.271,0-6.542,0-9.798,0c-0.229,2.461-0.461,4.916-0.704,7.513c-0.731-0.215-1.333-0.388-1.884-0.548
		c0.207-2.376,0.407-4.688,0.615-7.079C34.012,25.927,32.901,25.927,31.83,25.927z M37.043,24.045c3.3,0,6.586,0,9.912,0
		c-0.183-3.806-1.299-7.269-3.168-10.36c-2.533,0.914-5,1.803-7.44,2.682C36.575,18.878,36.809,21.449,37.043,24.045z
		 M12.919,24.058c0.274-2.645,0.543-5.224,0.812-7.806c-1.201-0.37-2.473-0.711-3.708-1.154c-1.231-0.441-2.427-0.98-3.668-1.489
		c-1.933,3.199-3.046,6.655-3.21,10.448C6.461,24.058,9.718,24.058,12.919,24.058z M33.947,14.904
		c-0.029-0.224-0.029-0.324-0.057-0.416c-0.481-1.572-0.896-3.168-1.468-4.707c-0.795-2.143-1.909-4.107-3.5-5.796
		c-0.854-0.907-1.894-0.693-2.922-0.834c0,4.197,0,8.309,0,12.555C28.675,15.436,31.301,15.17,33.947,14.904z M24.032,3.184
		c-0.629,0.058-1.208,0.076-1.771,0.176c-0.304,0.054-0.648,0.183-0.858,0.394c-0.545,0.547-1.074,1.123-1.522,1.751
		c-1.649,2.308-2.642,4.919-3.401,7.628c-0.153,0.546-0.281,1.1-0.42,1.646c1.603,0.473,6.864,0.907,7.972,0.769
		C24.032,11.451,24.032,7.352,24.032,3.184z M35.849,14.341c2.331-0.584,4.562-1.272,6.673-2.459
		c-2.816-3.722-6.394-6.235-10.78-7.636C33.778,7.341,35.057,10.724,35.849,14.341z M7.52,11.934
		c1.245,0.801,5.649,2.337,6.677,2.333c0.775-3.568,2.093-6.928,4.252-10.077C13.889,5.644,10.329,8.226,7.52,11.934z"/>
	<path fill-rule="evenodd" clip-rule="evenodd" fill="#F7A035" d="M24.234,40.083c0.097-1.63,0.197-3.258,0.289-4.887
		c0.035-0.621,0.048-0.61,0.72-0.646c0.514-0.028,0.642,0.182,0.659,0.663c0.061,1.63,0.167,3.258,0.371,4.913
		c0.074-0.165,0.155-0.33,0.225-0.499c0.864-2.119,1.729-4.239,2.596-6.36c0.284-0.698,0.599-0.753,1.316-0.509
		c1.898,0.642,3.802,1.289,5.74,1.795c1.521,0.396,2.558,1.171,2.643,2.85c0.119,2.305,0.302,4.606,0.469,6.909
		c0.025,0.339-0.084,0.547-0.374,0.717c-1.363,0.789-2.719,1.593-4.178,2.451c-0.143-1.012-0.261-1.848-0.381-2.712
		c-0.604,0.126-0.961,0.462-1.086,0.967c-0.147,0.587-0.238,1.193-0.292,1.797c-0.03,0.333-0.092,0.516-0.45,0.627
		c-4.97,1.529-9.93,1.535-14.892-0.031c-0.29-0.091-0.377-0.234-0.411-0.517c-0.074-0.621-0.189-1.235-0.298-1.85
		c-0.026-0.145-0.063-0.315-0.157-0.411c-0.208-0.211-0.457-0.384-0.689-0.571c-0.083,0.234-0.203,0.464-0.243,0.705
		c-0.096,0.581-0.155,1.165-0.234,1.795c-1.606-0.672-3.055-1.511-4.421-2.495c-0.089-0.063-0.134-0.256-0.124-0.382
		c0.201-2.467,0.4-4.933,0.628-7.396c0.106-1.15,0.962-1.994,2.243-2.347c1.378-0.379,2.755-0.769,4.122-1.189
		c0.737-0.228,1.456-0.52,2.174-0.8c0.522-0.204,0.866-0.038,1.129,0.603c0.699,1.707,1.392,3.417,2.089,5.126
		c0.234,0.573,0.474,1.144,0.711,1.717C24.164,40.104,24.199,40.093,24.234,40.083z"/>
	<path fill-rule="evenodd" clip-rule="evenodd" fill="#F7A035" d="M30.491,23.021c0.046,0.624,0.094,1.248,0.141,1.871
		c0.062,0.783-0.236,1.403-0.813,1.926c-0.22,0.198-0.416,0.464-0.521,0.738c-0.77,2.016-2.922,3.498-4.896,3.203
		c-1.919-0.287-3.176-1.482-3.928-3.245c-0.099-0.233-0.233-0.47-0.408-0.647c-0.558-0.572-0.78-1.227-0.677-2.027
		c0.085-0.667,0.105-1.344,0.131-2.016c0.019-0.461-0.027-0.924,0.002-1.384c0.13-2.027,1.184-3.325,3.767-3.97
		c1.698-0.424,3.375-0.198,4.966,0.558c1.557,0.741,2.222,2.037,2.271,3.703c0.014,0.429,0.002,0.858,0.002,1.288
		C30.516,23.02,30.504,23.021,30.491,23.021z"/>
	<path fill-rule="evenodd" clip-rule="evenodd" fill="#F7A035" d="M25.075,32.093c0.197-0.001,0.395-0.002,0.593-0.001
		c0.748,0.005,0.925,0.187,0.915,0.938c-0.007,0.588-0.211,0.798-0.802,0.804c-0.527,0.006-1.055,0.012-1.581-0.003
		c-0.489-0.015-0.683-0.227-0.684-0.699c-0.003-0.773,0.141-1.006,0.669-1.035C24.481,32.08,24.778,32.093,25.075,32.093z"/>
</g>
</svg>
