<?xml version="1.0" encoding="utf-8"?>
<!-- Generator: Adobe Illustrator 16.0.0, SVG Export Plug-In . SVG Version: 6.00 Build 0)  -->
<!DOCTYPE svg PUBLIC "-//W3C//DTD SVG 1.1//EN" "http://www.w3.org/Graphics/SVG/1.1/DTD/svg11.dtd">
<svg version="1.1" id="Layer_1" xmlns="http://www.w3.org/2000/svg" xmlns:xlink="http://www.w3.org/1999/xlink" x="0px" y="0px"
	 width="46px" height="46px" viewBox="0 0 46 46" enable-background="new 0 0 46 46" xml:space="preserve">
<g>
	<path fill-rule="evenodd" clip-rule="evenodd" d="M21.352,35.9c0.971-0.017,1.957-0.121,2.906-0.325
		c9.038-1.949,14.719-10.274,13.25-19.374C36.403,9.356,30.863,3.725,24.035,2.463c-2.128-0.393-4.269-0.307-6.408-0.271
		c-1.049,0.018-2.115,0.109-3.142,0.319C6.517,4.14,1.016,10.896,0.999,19.027c-0.006,2.64-0.001,5.279-0.001,7.919
		c-0.02,0-0.04,0-0.059,0c0,2.966,0,5.932,0,8.897c0,0.355,0.042,0.694,0.42,0.859c0.348,0.153,0.622-0.002,0.89-0.219
		c0.918-0.741,1.851-1.464,2.763-2.213c0.883-0.725,1.875-1.052,3.019-0.974c0.821,0.057,1.506,0.447,2.21,0.803
		c1.861,0.938,3.821,1.58,5.902,1.712C17.874,35.922,19.616,35.931,21.352,35.9z M10.623,32.728
		c-1.761-0.964-3.574-1.188-5.379-0.233c-0.854,0.45-1.585,1.131-2.372,1.709c-0.146,0.105-0.289,0.215-0.485,0.362
		c-0.016-0.168-0.034-0.269-0.034-0.369c0.013-5.279-0.042-10.561,0.059-15.838C2.55,11.117,8.093,4.816,15.266,3.798
		c3.275-0.465,6.627-0.627,9.839,0.362c6.075,1.871,9.88,5.974,11.004,12.253c1.481,8.283-3.808,16.014-11.993,17.779
		c-0.948,0.205-1.936,0.323-2.905,0.326c-1.89,0.005-3.787-0.024-5.669-0.182C13.796,34.191,12.16,33.568,10.623,32.728z"/>
	<path fill-rule="evenodd" clip-rule="evenodd" d="M45.061,42.771c-0.011-4.954-0.024-9.908-0.028-14.863
		c-0.002-1.885-0.143-3.747-0.706-5.563c-0.769-2.478-2.052-4.643-3.857-6.501c-0.371-0.382-0.797-0.429-1.103-0.133
		c-0.312,0.302-0.276,0.707,0.099,1.108c0.042,0.045,0.089,0.087,0.131,0.132c2.53,2.647,3.933,5.793,3.993,9.46
		c0.076,4.643,0.058,9.287,0.079,13.931c0.002,0.412,0,0.824,0,1.236c-0.075,0-0.113,0.012-0.131-0.002
		c-0.368-0.286-0.748-0.558-1.098-0.863c-2.091-1.826-4.327-2.019-6.742-0.672c-1.144,0.637-2.382,1.04-3.665,1.313
		c-1.997,0.425-4.02,0.315-6.034,0.275c-1.017-0.02-2.047-0.134-3.042-0.346c-2.809-0.598-5.186-2.005-7.197-4.046
		c-0.355-0.361-0.772-0.393-1.066-0.108c-0.297,0.287-0.272,0.714,0.072,1.066c2.087,2.141,4.588,3.564,7.471,4.344
		c2.02,0.546,4.083,0.515,6.148,0.528c2.957,0.021,5.754-0.577,8.374-1.986c0.492-0.265,1.071-0.427,1.627-0.498
		c1.052-0.134,1.98,0.233,2.799,0.905c0.803,0.66,1.621,1.304,2.435,1.952c0.302,0.241,0.588,0.54,1.033,0.332
		C45.095,43.565,45.062,43.163,45.061,42.771z"/>
	<path fill-rule="evenodd" clip-rule="evenodd" d="M30.461,19.932c0.278-5.68-3.933-11.573-11.08-11.707
		C13.524,8.115,8.417,12.574,8.122,18.961c-0.268,5.806,4.056,11.266,10.661,11.605C24.782,30.875,30.091,26.352,30.461,19.932z
		 M14.346,18.664c0.184-1.29,0.362-2.538,0.541-3.783c1.287,0.173,2.464,0.332,3.681,0.496c0,1.064,0,2.157,0,3.288
		C17.204,18.664,15.835,18.664,14.346,18.664z M18.56,20.104c0,1.13,0,2.251,0,3.378c-1.183,0.151-2.374,0.305-3.691,0.474
		c-0.176-1.245-0.356-2.518-0.545-3.852C15.823,20.104,17.169,20.104,18.56,20.104z M14.678,10.672
		c0.044,0.04,0.088,0.08,0.132,0.12c-0.145,0.381-0.292,0.761-0.432,1.144c-0.137,0.376-0.265,0.755-0.425,1.214
		c-0.558-0.196-1.073-0.377-1.588-0.559c-0.017-0.052-0.034-0.103-0.051-0.154C13.103,11.849,13.891,11.26,14.678,10.672z
		 M9.857,16.786c0.363-0.963,0.836-1.885,1.286-2.813c0.055-0.113,0.281-0.252,0.375-0.221c0.685,0.229,1.357,0.498,2.009,0.745
		c-0.195,1.419-0.381,2.78-0.573,4.175c-1.098,0-2.234,0-3.475,0C9.605,18.011,9.639,17.364,9.857,16.786z M11.256,24.997
		c-1.021-1.447-1.614-3.047-1.723-4.883c1.188,0,2.312,0,3.409,0c0.196,1.417,0.388,2.806,0.586,4.235
		c-0.62,0.242-1.29,0.512-1.968,0.759C11.48,25.137,11.309,25.072,11.256,24.997z M14.775,28.183
		c-0.805-0.589-1.61-1.177-2.415-1.766c0.018-0.055,0.036-0.11,0.054-0.165c0.504-0.181,1.007-0.36,1.546-0.553
		c0.321,0.814,0.626,1.589,0.931,2.362C14.852,28.103,14.813,28.143,14.775,28.183z M18.57,29.114
		c-0.093,0.022-0.107,0.029-0.123,0.029c-1.019,0.048-1.783-0.256-2.122-1.34c-0.239-0.765-0.604-1.49-0.91-2.234
		c-0.028-0.067-0.035-0.144-0.067-0.285c1.082-0.138,2.135-0.271,3.222-0.409C18.57,26.35,18.57,27.735,18.57,29.114z
		 M18.582,13.976c-1.091-0.148-2.151-0.292-3.369-0.457c0.537-1.224,1.021-2.337,1.52-3.445c0.042-0.094,0.179-0.184,0.286-0.206
		c0.499-0.1,1.002-0.174,1.563-0.268C18.582,11.092,18.582,12.483,18.582,13.976z M27.227,25.129
		c-0.724-0.262-1.418-0.514-2.096-0.76c0.202-1.413,0.403-2.815,0.61-4.262c1.08,0,2.16,0,3.309,0
		C28.93,21.98,28.332,23.639,27.227,25.129z M27.382,13.898c1.002,1.423,1.549,3.006,1.673,4.775c-1.147,0-2.255,0-3.328,0
		c-0.199-1.39-0.393-2.75-0.592-4.144c0.639-0.245,1.27-0.496,1.91-0.722C27.139,13.774,27.329,13.823,27.382,13.898z M23.92,10.682
		c0.799,0.601,1.599,1.202,2.506,1.883c-0.669,0.245-1.185,0.433-1.715,0.627c-0.313-0.823-0.611-1.607-0.91-2.392
		C23.842,10.76,23.881,10.721,23.92,10.682z M20.023,9.608c0.529,0.086,1.031,0.161,1.529,0.256
		c0.095,0.018,0.208,0.092,0.256,0.174c0.651,1.092,1.124,2.261,1.535,3.555c-1.134,0.141-2.203,0.273-3.32,0.411
		C20.023,12.5,20.023,11.084,20.023,9.608z M20.019,15.393c1.247-0.153,2.454-0.302,3.759-0.463
		c0.184,1.224,0.366,2.455,0.557,3.735c-1.483,0-2.884,0-4.316,0C20.019,17.576,20.019,16.484,20.019,15.393z M20.015,20.119
		c1.429,0,2.828,0,4.342,0c-0.194,1.33-0.382,2.614-0.566,3.865c-1.37-0.181-2.562-0.338-3.776-0.498
		C20.015,22.38,20.015,21.26,20.015,20.119z M22.504,27.324c-0.105,0.241-0.229,0.475-0.353,0.707
		c-0.526,0.984-0.942,1.195-2.138,1.076c0-1.372,0-2.746,0-4.224c1.114,0.148,2.168,0.289,3.337,0.444
		C23.042,26.058,22.778,26.693,22.504,27.324z M23.833,28.175c-0.033-0.04-0.065-0.081-0.098-0.121
		c0.277-0.699,0.548-1.401,0.843-2.094c0.038-0.089,0.219-0.196,0.299-0.174c0.454,0.127,0.896,0.292,1.503,0.498
		C25.452,26.973,24.643,27.574,23.833,28.175z"/>
</g>
</svg>
