<?xml version="1.0" encoding="utf-8"?>
<!-- Generator: Adobe Illustrator 16.0.0, SVG Export Plug-In . SVG Version: 6.00 Build 0)  -->
<!DOCTYPE svg PUBLIC "-//W3C//DTD SVG 1.1//EN" "http://www.w3.org/Graphics/SVG/1.1/DTD/svg11.dtd">
<svg version="1.1" id="Layer_1" xmlns="http://www.w3.org/2000/svg" xmlns:xlink="http://www.w3.org/1999/xlink" x="0px" y="0px"
	 width="46px" height="46px" viewBox="0 0 46 46" enable-background="new 0 0 46 46" xml:space="preserve">
<g>
	<path fill-rule="evenodd" clip-rule="evenodd" d="M43.485,14.672C39.94,7.489,34.133,3.591,26.136,3.169
		c-4.595-0.243-8.762,1.182-12.46,3.929c-1.412,1.049-2.657,2.271-3.762,3.707c0.371,0.225,0.719,0.431,1.063,0.644
		c1.813,1.119,3.959,1.677,5.526,3.361c0.066-0.608,0.433-0.602,0.836-0.599c2.291,0.01,4.581,0.004,6.871,0.006
		c0.141,0,0.28,0.016,0.461,0.027c0,1.208,0,2.382,0,3.572c0.6-0.089,1.155-0.171,1.743-0.259c0-1.126,0-2.214,0-3.298
		c0.082-0.019,0.122-0.038,0.163-0.038c2.495-0.001,4.989,0.002,7.485-0.007c0.265-0.001,0.339,0.141,0.426,0.341
		c0.632,1.463,1.099,2.978,1.36,4.547c0.164,0.984,0.236,1.983,0.354,3.027c-0.265,0-0.422,0-0.579,0
		c-0.903,0-1.81-0.005-2.713,0.006c-0.129,0.001-0.333,0.037-0.374,0.119c-0.246,0.503-0.455,1.024-0.714,1.626
		c1.51,0,2.901,0,4.288,0c0.009,0.095,0.018,0.139,0.015,0.183c-0.201,2.61-0.849,5.104-2.004,7.458
		c-0.065,0.132-0.307,0.249-0.469,0.252c-1.078,0.022-2.159,0.006-3.238,0.018c-0.144,0.001-0.343,0.04-0.421,0.138
		c-0.405,0.505-0.78,1.034-1.211,1.618c1.418,0,2.799,0,4.245,0c-0.132,0.213-0.212,0.35-0.298,0.482
		c-1.105,1.697-2.462,3.171-3.9,4.591c-0.724,0.714-1.552,0.633-2.445,0.748c0-1.493,0-2.927,0-4.382
		c-0.539,0.137-1.035,0.245-1.519,0.398c-0.095,0.029-0.19,0.229-0.195,0.353c-0.02,0.643-0.011,1.285-0.011,1.927
		c0,0.564,0,1.128,0,1.711c-0.436-0.04-0.812-0.088-1.189-0.109c-0.447-0.025-0.787-0.229-1.099-0.54
		c-0.741-0.741-1.503-1.46-2.278-2.208c-0.018,0.051-0.045,0.102-0.057,0.157c-0.375,1.785-0.17,3.536,0.336,5.264
		c0.04,0.134,0.234,0.28,0.383,0.318c3.048,0.779,6.105,0.792,9.174,0.098c8.434-1.909,14.874-9.234,15.369-18.299
		C45.479,20.786,44.939,17.618,43.485,14.672z M16.045,12.135c-0.155,0.237-0.292,0.348-0.58,0.34
		c-0.769-0.02-1.538-0.006-2.448-0.006c1.63-1.929,3.498-3.327,5.762-4.405c-0.104,0.165-0.149,0.239-0.197,0.312
		C17.734,9.626,16.874,10.87,16.045,12.135z M24.646,12.433c-2.316,0-4.625,0-6.97,0c0.032-0.089,0.05-0.183,0.096-0.261
		c1.078-1.833,2.395-3.477,3.927-4.948c0.126-0.122,0.314-0.218,0.486-0.249c0.8-0.144,1.605-0.26,2.46-0.395
		C24.646,8.584,24.646,10.49,24.646,12.433z M26.433,12.436c0-1.922,0-3.836,0-5.851c0.879,0.136,1.725,0.262,2.566,0.406
		c0.118,0.021,0.236,0.113,0.328,0.201c1.564,1.5,2.907,3.176,3.997,5.052c0.028,0.048,0.044,0.102,0.082,0.192
		C31.071,12.436,28.767,12.436,26.433,12.436z M35.334,12.454c-0.084-0.001-0.188-0.119-0.245-0.207
		c-0.893-1.376-1.779-2.757-2.642-4.097c2.092,0.975,3.958,2.387,5.591,4.313C37.066,12.464,36.2,12.47,35.334,12.454z
		 M36.044,14.215c0.391,0,0.716,0,1.04,0c0.642,0,1.284-0.012,1.924,0.01c0.148,0.004,0.356,0.086,0.428,0.2
		c1.416,2.281,2.204,4.767,2.388,7.445c0.005,0.069-0.007,0.14-0.013,0.234c-1.352,0-2.687,0-4.07,0
		C37.67,19.398,37.111,16.797,36.044,14.215z M31.462,38.264c-0.025-0.028-0.051-0.057-0.077-0.085
		c0.092-0.104,0.188-0.201,0.271-0.311c0.991-1.329,1.992-2.652,2.961-3.999c0.174-0.241,0.322-0.354,0.621-0.348
		c0.897,0.019,1.795,0.007,2.809,0.007C36.177,35.715,34.011,37.258,31.462,38.264z M41.633,25.781
		c-0.35,2.011-1.046,3.895-2.089,5.652c-0.149,0.252-0.314,0.363-0.619,0.358c-1.032-0.021-2.065-0.008-3.19-0.008
		c1.141-2.541,1.825-5.131,1.984-7.896c1.374,0,2.709,0,4.137,0C41.781,24.53,41.739,25.163,41.633,25.781z"/>
	<path fill-rule="evenodd" clip-rule="evenodd" d="M3.265,7.083L3.265,7.083C3.267,7.081,3.268,7.08,3.265,7.083z"/>
	<path fill-rule="evenodd" clip-rule="evenodd" d="M24.424,33.761c2.767-0.561,4.717-2.083,5.412-4.879
		c0.336-1.349,0.449-2.758,0.576-4.148c0.195-2.104,1.071-3.816,2.723-5.134c0.14-0.111,0.274-0.231,0.471-0.398
		c-2.851-0.421-5.586-0.448-8.284,0.306c-2.928,0.818-5.21,2.494-6.66,5.204c-1.172,2.192-1.594,4.575-1.7,7.03
		c-0.012,0.29-0.001,0.582-0.001,0.873c1.73-3.271,3.87-6.084,7.296-7.68c-2.213,1.547-4.022,3.479-5.461,5.765
		c-1.426,2.267-2.325,4.741-2.889,7.354c-0.057-0.096-0.078-0.179-0.081-0.262c-0.065-1.968-0.146-3.936-0.188-5.904
		c-0.034-1.637,0.153-3.226,0.72-4.801c0.714-1.99,0.976-4.083,0.65-6.202c-0.444-2.881-1.997-5.041-4.387-6.653
		c-1.428-0.963-3.028-1.54-4.613-2.166c-1.572-0.621-2.985-1.498-3.882-2.983c-0.371-0.615-0.578-1.33-0.86-1.999
		C3.26,7.092,3.245,7.118,3.228,7.143c-0.089,0.133-0.183,0.264-0.267,0.4C1.8,9.417,1.121,11.456,0.83,13.637
		c-0.335,2.522-0.158,5.008,0.58,7.438c1.554,5.117,5.933,7.979,11.327,8.868c0.039-3.954-0.908-7.616-3.229-10.884
		c0.052-0.037,0.104-0.075,0.156-0.113c0.16,0.187,0.315,0.375,0.48,0.558c1.546,1.704,2.439,3.75,3.049,5.929
		c1.254,4.49,1.425,9.079,1.188,13.7c-0.007,0.136,0.043,0.347,0.137,0.403c1.009,0.592,2.033,1.161,3.116,1.771
		c0-0.184,0.009-0.242-0.001-0.296c-0.407-2.271-0.051-4.429,0.907-6.514c0.208-0.451,0.464-0.608,0.96-0.57
		C21.146,34.052,22.792,34.093,24.424,33.761z"/>
	<path fill-rule="evenodd" clip-rule="evenodd" d="M12.296,32.057c-1.132-0.413-2.27-0.816-3.384-1.276
		c-0.652-0.269-1.264-0.636-2.002-1.016c1.224,3.28,3.083,5.979,5.696,8.27c0.019-0.174,0.037-0.256,0.037-0.337
		c0.001-1.75-0.007-3.501,0.008-5.252C12.654,32.159,12.5,32.131,12.296,32.057z"/>
</g>
</svg>
