<?xml version="1.0" encoding="utf-8"?>
<!-- Generator: Adobe Illustrator 16.0.0, SVG Export Plug-In . SVG Version: 6.00 Build 0)  -->
<!DOCTYPE svg PUBLIC "-//W3C//DTD SVG 1.1//EN" "http://www.w3.org/Graphics/SVG/1.1/DTD/svg11.dtd">
<svg version="1.1" id="Layer_1" xmlns="http://www.w3.org/2000/svg" xmlns:xlink="http://www.w3.org/1999/xlink" x="0px" y="0px"
	 width="149px" height="151.46px" viewBox="0 0 149 151.46" enable-background="new 0 0 149 151.46" xml:space="preserve">
<g>
	<path fill-rule="evenodd" clip-rule="evenodd" fill="#FFFFFF" d="M75.048,3.209C34.508,3.121,1.953,35.342,1.945,75.438
		c-0.007,40.412,32.269,72.813,72.535,72.813c39.849-0.001,72.3-32.325,72.572-71.828C147.33,36.175,114.838,3.295,75.048,3.209z
		 M74.372,143.016C37.105,142.941,7.078,112.805,7.18,75.58C7.284,38.37,37.309,8.417,74.492,8.431
		c37.252,0.013,67.318,30.114,67.274,67.353C141.722,113.041,111.602,143.09,74.372,143.016z"/>
	<path fill-rule="evenodd" clip-rule="evenodd" fill="#FFFFFF" d="M97.02,67.964c0.684-0.749,1.332-1.958,1.257-2.9
		c-0.312-3.979-2.665-6.849-5.75-9.688c-3.45,3.486-6.742,6.815-9.832,9.939c-0.912-0.735-1.844-1.486-3.131-2.524
		c3.378-3.353,6.538-6.49,9.681-9.609c-3.77-2.078-5.228-1.895-8.256,1.169c-1.59,1.61-3.123,3.274-4.775,5.012
		c-7.54-7.545-14.85-14.861-22.055-22.072c-6.088,6.09-12.077,12.08-18.286,18.291c7.236,7.228,14.556,14.54,22.111,22.086
		c-3.654,3.627-7.329,7.273-10.9,10.818c1.285,0.252,2.73,0.263,3.903,0.833c1.561,0.759,2.419,0.296,3.475-0.839
		c2.324-2.499,4.789-4.868,7.005-7.098c1.082,0.95,1.976,1.736,3.226,2.835c-2.878,2.76-5.701,5.467-8.528,8.177
		c2.922,3.18,5.882,6.278,5.48,11.336c3.774-3.773,7.548-7.548,11.427-11.426c7.31,7.316,14.593,14.607,21.8,21.821
		c6.005-6.005,12-11.999,18.021-18.022c-7.223-7.214-14.517-14.498-22.045-22.017C93.03,71.948,95.122,70.045,97.02,67.964z
		 M94.286,82.039c-2.955,2.931-6.13,6.079-9.473,9.395c0.973,0.748,1.663,1.276,2.28,1.752c2.942-2.961,6.088-6.129,9.077-9.138
		c1.976,1.952,3.644,3.6,5.415,5.349c-2.392,2.359-4.982,4.915-7.619,7.517c0.769,0.683,1.415,1.257,2.255,2.006
		c2.384-2.49,4.935-5.154,7.396-7.727c1.847,1.835,3.486,3.463,5.022,4.988c-4.55,4.55-9.164,9.164-13.682,13.685
		C76.796,91.704,58.535,73.443,40.414,55.321c4.488-4.485,9.097-9.091,13.645-13.638c1.397,1.429,3.005,3.072,4.656,4.761
		c-2.446,2.39-5.084,4.97-7.761,7.585c0.946,0.82,1.605,1.392,2.279,1.976c2.473-2.514,5.029-5.112,7.559-7.685
		c1.795,1.884,3.39,3.557,5.048,5.297c-2.979,2.867-6.195,5.966-9.555,9.201c1.071,0.785,1.77,1.296,2.541,1.86
		c2.851-2.874,6.027-6.073,9.109-9.178c1.871,1.876,3.502,3.512,5.273,5.289c-2.552,2.434-5.19,4.951-7.857,7.494
		c0.834,0.778,1.466,1.366,2.206,2.055c2.432-2.523,4.99-5.177,7.539-7.82c1.9,1.912,3.524,3.547,5.237,5.271
		c-3.141,3.122-6.312,6.274-9.613,9.557c0.782,0.714,1.421,1.299,2.109,1.927c3.15-3.175,6.296-6.345,9.37-9.443
		c1.783,1.825,3.388,3.469,5.116,5.238c-2.42,2.38-5.044,4.963-7.741,7.616c0.852,0.748,1.504,1.321,2.3,2.021
		c2.451-2.562,4.975-5.197,7.443-7.775C91.11,78.773,92.716,80.425,94.286,82.039z"/>
	<path fill-rule="evenodd" clip-rule="evenodd" fill="#FFFFFF" d="M101.117,64.014c1.86-1.884,3.724-3.765,5.582-5.651
		c1.684-1.709,2.274-3.781,1.826-6.099c-1.006-5.197-4.175-8.544-9.102-10.265c-2.183-0.763-4.601-0.932-6.351,0.592
		c-2.378,2.071-4.334,4.625-6.17,6.641C92.964,48.353,102,57.895,101.117,64.014z"/>
	<path fill-rule="evenodd" clip-rule="evenodd" fill="#FFFFFF" d="M47.851,96.023c-0.588-0.25-1.361-0.461-1.917-0.282
		c-0.683,0.221-1.635,0.776-1.766,1.349c-0.81,3.541-1.423,7.127-2.166,11.041c3.665-0.675,6.97-1.271,10.27-1.892
		c2.025-0.381,2.719-1.481,2.027-3.471C53.185,99.563,50.957,97.34,47.851,96.023z"/>
</g>
</svg>
