<?xml version="1.0" encoding="utf-8"?>
<!-- Generator: Adobe Illustrator 16.0.0, SVG Export Plug-In . SVG Version: 6.00 Build 0)  -->
<!DOCTYPE svg PUBLIC "-//W3C//DTD SVG 1.1//EN" "http://www.w3.org/Graphics/SVG/1.1/DTD/svg11.dtd">
<svg version="1.1" id="Layer_1" xmlns="http://www.w3.org/2000/svg" xmlns:xlink="http://www.w3.org/1999/xlink" x="0px" y="0px"
	 width="50px" height="50px" viewBox="0 0 50 50" enable-background="new 0 0 50 50" xml:space="preserve">
<g>
	<path fill-rule="evenodd" clip-rule="evenodd" d="M25.158,31.142c-1.765,1.791-3.506,3.535-5.208,5.317
		c-0.166,0.173-0.179,0.599-0.112,0.87c0.707,2.873,0.239,5.535-1.388,7.996c-2.366,3.578-7.204,5.17-11.232,3.702
		c-1.144-0.416-1.271-0.952-0.421-1.807c1.255-1.262,2.531-2.503,3.759-3.789c0.226-0.238,0.376-0.65,0.375-0.981
		c-0.004-0.983-0.101-1.966-0.165-2.999c-1.107-0.059-2.168-0.145-3.229-0.146c-0.278-0.001-0.612,0.201-0.825,0.409
		c-1.277,1.238-2.521,2.511-3.786,3.763c-0.811,0.803-1.328,0.667-1.696-0.426c-1.968-5.849,1.517-11.818,7.605-12.836
		c1.261-0.211,2.614,0.049,3.914,0.184c0.538,0.055,0.911,0.055,1.329-0.377c1.625-1.68,3.305-3.306,5.044-5.031
		c-1.783-1.756-3.508-3.479-5.273-5.159c-0.167-0.157-0.604-0.136-0.878-0.061c-3.357,0.918-6.398,0.289-9.069-1.915
		c-3.154-2.604-4.293-7.15-2.813-10.919c0.31-0.789,0.894-0.92,1.539-0.291c1.311,1.278,2.58,2.597,3.902,3.862
		c0.24,0.229,0.648,0.389,0.98,0.392c0.986,0.01,1.973-0.073,3.071-0.125c0.048-1.188,0.114-2.321,0.12-3.454
		c0.001-0.204-0.223-0.439-0.392-0.61c-1.267-1.286-2.553-2.552-3.82-3.837C5.8,2.173,5.922,1.614,6.826,1.277
		c6.229-2.316,13.142,2.097,13.141,9.384c-0.001,0.48,0.003,1.002-0.173,1.431c-0.357,0.868,0.007,1.378,0.604,1.956
		c1.622,1.572,3.182,3.207,4.787,4.837c1.701-1.703,3.331-3.308,4.916-4.955c0.183-0.188,0.223-0.644,0.149-0.928
		C29.25,9.087,30.11,5.661,33.112,2.948c2.809-2.536,6.128-3.106,9.726-1.939c1.123,0.364,1.23,0.918,0.396,1.752
		c-1.257,1.259-2.527,2.506-3.771,3.779c-0.193,0.197-0.39,0.506-0.386,0.759c0.017,1.062,0.11,2.123,0.181,3.254
		c1.134,0.067,2.241,0.153,3.35,0.18c0.204,0.005,0.448-0.2,0.617-0.367c1.269-1.248,2.52-2.513,3.782-3.767
		c0.906-0.9,1.412-0.767,1.813,0.466c1.914,5.889-1.698,11.85-7.83,12.773c-1.15,0.173-2.366-0.095-3.553-0.14
		c-0.279-0.01-0.665-0.048-0.827,0.108c-1.756,1.69-3.478,3.418-5.258,5.186c1.742,1.735,3.42,3.43,5.139,5.081
		c0.17,0.166,0.605,0.156,0.887,0.091c3.169-0.755,6.048-0.156,8.596,1.869c3.208,2.552,4.411,7.032,2.982,10.938
		c-0.329,0.899-0.908,1.044-1.608,0.357c-1.309-1.281-2.58-2.599-3.898-3.866c-0.222-0.212-0.608-0.354-0.919-0.354
		c-1.008-0.003-2.017,0.073-3.065,0.12c-0.075,1.188-0.169,2.273-0.191,3.361c-0.005,0.225,0.222,0.492,0.405,0.679
		c1.228,1.252,2.475,2.485,3.712,3.729c0.892,0.897,0.766,1.41-0.44,1.84c-5.654,2.016-11.932-1.827-12.76-7.774
		c-0.193-1.387-0.097-2.724,0.217-4.072c0.055-0.24-0.02-0.615-0.183-0.783C28.589,34.539,26.922,32.898,25.158,31.142z
		 M8.417,47.74c0.53,0.109,0.822,0.195,1.12,0.227c5.901,0.609,10.442-4.974,8.636-10.645c-0.243-0.764-0.085-1.269,0.47-1.82
		c5.622-5.592,11.233-11.192,16.813-16.826c0.666-0.673,1.276-0.839,2.155-0.581c2.047,0.6,4.027,0.314,5.89-0.687
		c3.256-1.75,5.04-5.767,3.995-9.122c-1.176,1.193-2.288,2.374-3.467,3.482c-0.31,0.291-0.826,0.503-1.252,0.506
		c-1.344,0.011-2.689-0.097-4.034-0.151c-0.67-0.027-1.026-0.349-1.056-1.033c-0.036-0.812-0.1-1.623-0.137-2.435
		c-0.107-2.322-0.104-2.322,1.534-3.958c0.667-0.663,1.335-1.326,1.996-1.993c0.13-0.129,0.234-0.282,0.446-0.538
		c-1.256,0-2.399-0.181-3.465,0.031c-5.044,1.001-7.814,5.913-6.141,10.784c0.246,0.714,0.177,1.216-0.373,1.763
		c-5.66,5.625-11.304,11.266-16.936,16.919c-0.494,0.496-0.939,0.606-1.619,0.398c-4.264-1.303-8.303,0.52-10.097,4.521
		C2.17,38.202,2.08,39.88,2.47,41.71c1.179-1.173,2.289-2.246,3.359-3.356c0.477-0.494,0.969-0.718,1.681-0.645
		c1.211,0.125,2.434,0.141,3.651,0.196c0.889,0.042,1.132,0.256,1.18,1.131c0.068,1.218,0.072,2.438,0.183,3.652
		c0.069,0.766-0.202,1.296-0.743,1.797C10.685,45.501,9.629,46.562,8.417,47.74z M8.346,2.472C8.558,2.708,8.7,2.878,8.855,3.035
		C9.86,4.044,10.888,5.03,11.86,6.07c0.251,0.269,0.469,0.702,0.462,1.054c-0.026,1.421-0.155,2.841-0.23,4.262
		c-0.033,0.625-0.333,0.895-0.96,0.921c-1.371,0.057-2.739,0.199-4.109,0.213c-0.402,0.004-0.895-0.209-1.196-0.486
		c-1.065-0.98-2.063-2.033-3.093-3.054c-0.13-0.129-0.29-0.229-0.459-0.361C1.471,11.652,2.71,15.073,5.3,16.973
		c2.395,1.756,5.024,2.043,7.801,1.091c0.589-0.202,1.062-0.218,1.511,0.277c0.461,0.508,0.972,0.97,1.452,1.46
		c1.348,1.375,2.691,2.755,3.952,4.046c1.396-1.385,2.686-2.665,4.019-3.986c-1.81-1.802-3.629-3.647-5.493-5.447
		c-0.568-0.55-0.674-1.074-0.476-1.831C19.753,6.133,13.956,1.071,8.346,2.472z M47.67,41.5c0.386-0.962,0.415-2.299,0.176-3.492
		c-0.906-4.52-5.492-7.721-10.417-6.193c-0.828,0.256-1.412,0.117-2.023-0.527c-1.659-1.749-3.387-3.433-5.061-5.114
		c-1.339,1.325-2.635,2.607-3.993,3.951c1.683,1.669,3.348,3.378,5.081,5.014c0.679,0.643,0.839,1.234,0.567,2.142
		c-1.578,5.259,2.317,10.493,7.801,10.522c0.604,0.003,1.208-0.125,2.041-0.218c-1.347-1.324-2.516-2.45-3.651-3.608
		c-0.23-0.235-0.484-0.594-0.479-0.892c0.026-1.497,0.132-2.992,0.214-4.488c0.031-0.58,0.341-0.853,0.926-0.882
		c1.268-0.062,2.537-0.123,3.801-0.243c0.724-0.069,1.256,0.142,1.751,0.675C45.453,39.276,46.553,40.359,47.67,41.5z"/>
</g>
</svg>
